859877737623941122 negatif
859877743923802112 negatif
859877771853656065 negatif
859877782163271688 positif
859877785216712704 autre
859877794918125568 negatif
859877824370532354 negatif
859877829126881281 autre
859877832947793925 negatif
859877834482999296 mixte
859877835015585792 negatif
859877837570027521 autre
859877864962961408 positif
859877871707459585 negatif
859877883891896320 negatif
859877904087470085 negatif
859877906088173569 negatif
859877926744932352 negatif
859877930243153921 negatif
859877953865490433 autre
859877982172831749 negatif
859877990553067521 autre
859877997679190021 positif
859877998996185089 positif
859878002750083072 negatif
859878006969573377 negatif
859878013772673024 mixte
859878017459519489 negatif
859878018818359297 negatif
859878026745655296 positif
859878039605391360 negatif
859878059880718339 positif
859878072186810374 autre
859878077123493888 autre
859878082022453254 negatif
859878089412804608 autre
859878098719956993 negatif
859878113462935556 negatif
859878114394071041 negatif
859878134639996928 negatif
859878142516899840 positif
859878156106440706 positif
859878167523340291 autre
859878177862295555 negatif
859878177992257541 negatif
859878179904815105 negatif
859878199551025153 negatif
859878204168974338 negatif
859878212163305472 negatif
859878213195005952 negatif
859878218668617728 negatif
859878254974570496 negatif
859878272418623488 negatif
859878277854490624 negatif
859878286352056320 autre
859878293763481600 autre
859878297815142400 autre
859878322087571459 autre
859878382754025472 autre
859878385136402432 positif
859878401510973440 negatif
859878421924642816 autre
859878423564607488 autre
859878433169584129 autre
859878455638450176 positif
859878475074809857 negatif
859878490572804100 negatif
859878507932860416 autre
859878520088129536 autre
859878544939384835 negatif
859878559350968329 negatif
859878572458217472 negatif
859878572764393473 autre
859878579177390090 negatif
859878593064816641 negatif
859878594683817988 negatif
859878642448465922 autre
859878643425792006 positif
859878685888872449 positif
859878695896592390 positif
859878704113233923 negatif
859878710035570690 negatif
859878717140742146 negatif
859878727777386496 negatif
859878746303717382 mixte
859878748451221507 negatif
859878750900670475 negatif
859878753056555008 negatif
859878764326641665 negatif
859878768176922626 autre
859878783935021059 negatif
859878789094006785 negatif
859878798224969730 positif
859878815526514688 negatif
859878840772042753 positif
859878861458341889 autre
859878866566959107 positif
859878871197515777 negatif
859878882052329472 autre
859878888851329026 negatif
859878895432159232 negatif
859878900779945985 negatif
859878903774621707 negatif
859878918505066498 negatif
859878919566241796 negatif
859878944773996547 positif
859878961781895174 negatif
859878969025470465 negatif
859878970254385153 negatif
859878981058924544 negatif
859878985500696576 negatif
859878986272444418 negatif
859878989959188481 negatif
859879008066048002 autre
859879008573456384 negatif
859879009643003908 positif
859879012633542657 negatif
859879032002949120 autre
859879051854581760 negatif
859879056246013953 negatif
859879073836879872 negatif
859879087778791425 negatif
859879112005103623 negatif
859879116358766599 positif
859879126886469634 negatif
859879132511035392 negatif
859879136483061760 autre
859879143114145792 positif
859879161162338306 negatif
859879164513574912 mixte
859879188505014272 negatif
859879188869808130 autre
859879199607328769 negatif
859879218838212613 negatif
859879226757001218 negatif
859879228027699200 autre
859879245635604480 negatif
859879247145566216 positif
859879262043725825 negatif
859879271375962112 negatif
859879276954386433 mixte
859879277050855424 negatif
859879287427608576 mixte
859879295912730625 negatif
859879302556524544 negatif
859879309460328448 autre
859879315093245954 positif
859879316011851776 mixte
859879316812947461 negatif
859879317093965824 negatif
859879320688488451 autre
859879321384742912 mixte
859879322613633025 mixte
859879322798219265 negatif
859879336240975874 positif
859879339399237635 positif
859879342389821440 negatif
859879345283883009 negatif
859879356646264834 negatif
859879363185127424 negatif
859879365663916040 positif
859879372299304965 negatif
859879381984051200 negatif
859879390246785028 autre
859879395728785409 positif
859879405996437505 mixte
859879407535747073 negatif
859879409309945856 negatif
859879411830714368 positif
859879412363386881 negatif
859879417904082945 negatif
859879418608717825 positif
859879423365058561 mixte
859879427592867841 negatif
859879438162505733 autre
859879441631252480 negatif
859879448165961728 mixte
859879451903090690 negatif
859879452792295425 mixte
859879453257859076 negatif
859879463080865795 negatif
859879477840662534 negatif
859879485071654913 negatif
859879488984944642 autre
859879489991577600 negatif
859879499420360707 mixte
859879525840297985 positif
859879527383740416 negatif
859879532224020482 negatif
859879540767772673 negatif
859879546396528641 autre
859879546409148416 negatif
859879555187830784 positif
859879565904281600 negatif
859879567837802497 positif
859879579267325953 positif
859879580307517440 negatif
859879584631795717 positif
859879590013145090 negatif
859879593917984769 positif
859879596140920833 autre
859879596963057664 negatif
859879608132521989 positif
859879612666572800 negatif
859879614084198400 mixte
859879614222671881 negatif
859879628877574144 positif
859879632270766081 mixte
859879639543631873 negatif
859879642836205571 negatif
859879648242671616 negatif
859879659835711489 autre
859879663056936963 negatif
859879669092544512 negatif
859879671898525700 mixte
859879677502029828 autre
859879681021095938 negatif
859879689787240449 autre
859879696401670144 positif
859879701782908932 negatif
859879706098847748 positif
859879723937259521 negatif
859879726177021954 negatif
859879729280823296 mixte
859879729876393985 negatif
859879733005357056 negatif
859879736683704320 negatif
859879740265689089 negatif
859879756111777793 negatif
859879762331930626 positif
859879762898112512 negatif
859879766299750400 negatif
859879775371972609 autre
859879776726786049 mixte
859879778740047874 negatif
859879802093924353 negatif
859879802962161668 mixte
859879806141419520 negatif
859879823052812297 autre
859879823346454530 positif
859879844863234048 positif
859879855193772033 negatif
859879857534128129 autre
859879861887827970 negatif
859879862181519360 positif
859879867373977600 negatif
859879874290491394 negatif
859879875347402754 negatif
859879879168360448 positif
859879880212836354 negatif
859879881802489856 negatif
859879885082423306 negatif
859879885120176129 negatif
859879886189727745 positif
859879894171430912 negatif
859879896369299457 negatif
859879903394705410 negatif
859879904523038720 negatif
859879905533849602 positif
859879908209766402 positif
859879909942054917 mixte
859879913557549056 negatif
859879916233424900 negatif
859879916728406016 negatif
859879917588230144 negatif
859879927990153216 autre
859879930234011648 negatif
859879932624875520 positif
859879933644075012 positif
859879936093560832 negatif
859879937632817157 negatif
859879942485680131 negatif
859879944079507458 negatif
859879946084376576 negatif
859879946545704961 mixte
859879948676464640 negatif
859879949032984577 negatif
859879949280346116 mixte
859879951121756162 negatif
859879964077895680 positif
859879964774203392 negatif
859879967294881792 negatif
859879974203011072 negatif
859879974584635392 mixte
859879975817707520 negatif
859879978841907201 autre
859879980758700032 autre
859879995598155778 autre
859879995900145674 negatif
859880006050295811 negatif
859880017634963461 mixte
859880021695090691 negatif
859880035343360000 negatif
859880035775336450 negatif
859880043903897600 negatif
859880053701840896 negatif
859880059838107648 negatif
859880060727304216 negatif
859880060991524872 negatif
859880062954459146 autre
859880066972602369 negatif
859880068646129665 negatif
859880070248378374 negatif
859880074417508353 autre
859880075944177664 autre
859880076678238210 negatif
859880079253532673 negatif
859880087373717506 negatif
859880092436230144 negatif
859880094822793216 negatif
859880095862972417 negatif
859880097268084739 negatif
859880098035625984 autre
859880098295623680 negatif
859880103593070592 negatif
859880115039240192 autre
859880116477980673 negatif
859880120538075137 negatif
859880122865909762 positif
859880124560404480 negatif
859880127592902657 positif
859880132764463105 negatif
859880133599125504 negatif
859880144495882244 negatif
859880144768561157 negatif
859880149935951874 negatif
859880153001996289 positif
859880156483268610 positif
859880158781730816 negatif
859880161981771776 negatif
859880165635174400 negatif
859880169485602816 negatif
859880171133915136 negatif
859880182416633856 negatif
859880191480483842 negatif
859880202754822144 negatif
859880202910011394 negatif
859880212519165956 negatif
859880219850801152 negatif
859880224393228292 mixte
859880233654202368 negatif
859880241405321216 negatif
859880244332941314 negatif
859880246472040450 negatif
859880254453821440 negatif
859880256257314816 positif
859880257352085504 positif
859880263001788416 negatif
859880265681952777 negatif
859880267661574146 negatif
859880278487183360 positif
859880278516486144 negatif
859880284795359232 positif
859880294496825344 negatif
859880294652022788 negatif
859880294664601600 positif
859880297965514752 mixte
859880306941341696 autre
859880310204280832 autre
859880325857628160 negatif
859880339942068226 negatif
859880356937428992 positif
859880362788495360 positif
859880368526249984 negatif
859880372066287616 negatif
859880384225570818 negatif
859880395659194374 positif
859880397005565952 negatif
859880402475003904 mixte
859880402923737088 autre
859880404194611204 autre
859880408728707074 mixte
859880416727228422 mixte
859880419227041792 negatif
859880423874334721 negatif
859880427066208256 negatif
859880428433551362 autre
859880430610370561 positif
859880432120324096 autre
859880435341504512 negatif
859880439342923778 positif
859880440194379776 negatif
859880445667930116 negatif
859880448977248256 negatif
859880458376630272 negatif
859880459710455809 negatif
859880473610379266 negatif
859880478295379973 negatif
859880484305870849 negatif
859880501926133760 negatif
859880505071763463 negatif
859880506070093825 negatif
859880506439151617 negatif
859880508204961792 mixte
859880512671952899 negatif
859880524860588032 positif
859880529268756482 negatif
859880532741697538 negatif
859880533400190978 negatif
859880535518322688 negatif
859880553394393088 negatif
859880554229059585 negatif
859880568326107137 negatif
859880589972963333 negatif
859880590769889282 negatif
859880597459787776 negatif
859880600106348544 negatif
859880602530701313 negatif
859880605642784768 negatif
859880606167117824 negatif
859880607370928128 autre
859880610499899395 positif
859880615860162561 autre
859880624445947904 positif
859880642829574145 negatif
859880654837866504 negatif
859880657341882369 mixte
859880677659090945 negatif
859880703760224256 autre
859880705400221704 negatif
859880709183483904 positif
859880719748935681 negatif
859880723184005121 autre
859880724094177282 negatif
859880726614999047 positif
859880745564852224 negatif
859880758021951488 negatif
859880760916021251 autre
859880770256719875 negatif
859880773410852869 negatif
859880775709339649 autre
859880786006335488 positif
859880788032204800 positif
859880819313303553 negatif
859880821087490051 mixte
859880822454849536 positif
859880830872801282 negatif
859880831669719041 positif
859880839525650433 positif
859880846009958401 negatif
859880850116288512 negatif
859880858626510848 negatif
859880873151401984 negatif
859880874636181504 negatif
859880877681242113 negatif
859880883263873024 negatif
859880883318337536 mixte
859880905485189120 autre
859880912372326401 negatif
859880912481386497 negatif
859880925798309888 negatif
859880942369951744 positif
859880956886487041 negatif
859880972657020928 negatif
859880980194185217 autre
859880981247000576 negatif
859880991158140928 negatif
859880994048028672 negatif
859880994761052160 positif
859880998909116416 positif
859881017737457664 negatif
859881029632491520 negatif
859881041087090693 negatif
859881043154882562 autre
859881043771482114 negatif
859881044656480256 negatif
859881126655127559 negatif
859881126667669504 negatif
859881146196402176 negatif
859881147337256961 negatif
859881162453471234 negatif
859881162856157190 positif
859881164361871364 negatif
859881166702346242 positif
859881180996521987 negatif
859881191100624902 negatif
859881194506383360 autre
859881213267410944 negatif
859881214550958080 negatif
859881214710353922 negatif
859881215284965376 negatif
859881241436446721 negatif
859881267596320771 negatif
859881279470391301 positif
859881322415869952 negatif
859881333685964800 positif
859881346872868864 positif
859881382578966528 positif
859881400949932037 negatif
859881400987770880 autre
859881430511497216 positif
859881430750461952 autre
859881474702684160 autre
859881475461853193 negatif
859881486836801537 negatif
859881493539192834 positif
859881497280602112 negatif
859881503278419969 negatif
859881540221902848 negatif
859881541178195968 negatif
859881543795429377 negatif
859881544357482500 positif
859881584106901505 autre
859881591350456320 negatif
859881598812123139 positif
859881602402439170 negatif
859881604826763264 positif
859881604885491712 positif
859881622182780930 autre
859881635906555906 positif
859881636460199937 positif
859881637852721152 negatif
859881657138114561 positif
859881669175767044 negatif
859881673072267267 negatif
859881675194601473 mixte
859881676188549120 positif
859881677425963008 negatif
859881682886942721 negatif
859881689388126216 autre
859881696493277189 negatif
859881697365700611 autre
859881698955341825 negatif
859881700880527363 negatif
859881701912313856 negatif
859881706752544771 negatif
859881719998054401 positif
859881744694210560 negatif
859881754169135104 autre
859881754483666946 negatif
859881760028491780 negatif
859881772737286144 positif
859881792404410368 negatif
859881794044297216 positif
859881829905702914 mixte
859881843667206148 positif
859881845940506624 negatif
859881847517523972 negatif
859881849866334208 negatif
859881850365501440 negatif
859881850499727363 positif
859881853230215168 positif
859881894393131010 negatif
859881918598434816 positif
859881919047225345 positif
859881938491932675 positif
859881942573076485 autre
859881947471937538 positif
859881952664580100 positif
859881955457892353 negatif
859881959207710720 negatif
859881961166438400 negatif
859881964534411266 negatif
859881974604935168 mixte
859881984105091072 negatif
859882003172384770 negatif
859882006414577668 autre
859882010688573451 positif
859882014857625602 positif
859882024953413634 positif
859882029143531521 positif
859882034940047365 negatif
859882045161578496 negatif
859882067026472961 positif
859882071241654273 autre
859882075209555969 negatif
859882085326172160 negatif
859882087591104512 mixte
859882101788876800 autre
859882126413615104 mixte
859882129261555723 positif
859882149197082625 positif
859882154322518017 positif
859882159825313792 negatif
859882160739688448 negatif
859882161901535241 negatif
859882164619497473 autre
859882168948068352 negatif
859882176262934531 positif
859882182931820545 positif
859882197616132097 autre
859882210580725761 positif
859882227680890882 negatif
859882229597708289 negatif
859882232294592516 negatif
859882234375008257 negatif
859882246819524608 negatif
859882251382910978 positif
859882269166718977 positif
859882275919585288 negatif
859882281611255808 autre
859882299344728064 negatif
859882307766956032 negatif
859882309616627716 negatif
859882314775638017 positif
859882319401947140 negatif
859882322778243072 positif
859882324082778112 positif
859882331783520256 negatif
859882335822544896 positif
859882336795721728 positif
859882349806440448 negatif
859882350959788034 autre
859882353484869633 negatif
859882356144041985 negatif
859882358295678976 negatif
859882366399131649 negatif
859882396828790791 positif
859882404399501312 positif
859882413127806979 positif
859882416013553666 autre
859882418005782529 mixte
859882431838642177 positif
859882436041289728 negatif
859882438385905664 positif
859882451329368064 autre
859882458208243712 positif
859882460011737095 positif
859882465879617536 negatif
859882473446047745 negatif
859882473748148224 negatif
859882482791010305 negatif
859882497919905792 negatif
859882499178192896 negatif
859882514525147136 negatif
859882514877472774 negatif
859882526508232704 positif
859882546582228999 negatif
859882553280475146 positif
859882555893526529 positif
859882561182588930 positif
859882561333604354 negatif
859882562386374657 negatif
859882563858567169 positif
859882568971374593 negatif
859882572888903680 positif
859882575044726785 negatif
859882576273657859 negatif
859882578605748224 positif
859882578609934336 negatif
859882580950253568 negatif
859882582720360451 negatif
859882584964255744 negatif
859882595437473792 positif
859882596909666308 negatif
859882598503469056 negatif
859882601452097540 negatif
859882606745276423 negatif
859882608129437697 negatif
859882609781989382 autre
859882613305208833 negatif
859882613472886784 negatif
859882626836033539 autre
859882632536084483 negatif
859882633874092035 negatif
859882636663283712 negatif
859882638013812739 negatif
859882640106811392 negatif
859882641365114881 negatif
859882643533549568 negatif
859882644024197127 negatif
859882645139976192 negatif
859882651502616576 negatif
859882653515997185 negatif
859882657076973570 autre
859882662693097475 negatif
859882664135929858 negatif
859882670469382144 autre
859882674688856064 negatif
859882675812933632 mixte
859882684658708481 negatif
859882684876718081 negatif
859882685250109440 negatif
859882689092104192 positif
859882695521964038 negatif
859882697275174912 positif
859882697765900290 negatif
859882698504056836 negatif
859882709178609665 negatif
859882710147502081 negatif
859882713318391809 mixte
859882729223139328 negatif
859882735019622400 positif
859882746096877572 negatif
859882747770351617 positif
859882750760845314 positif
859882752656769026 negatif
859882756565868544 negatif
859882759417999368 negatif
859882760579821568 negatif
859882765285818368 negatif
859882770478366720 autre
859882772416139264 positif
859882779168968709 negatif
859882784705445888 negatif
859882795052748805 mixte
859882806381555712 negatif
859882806708764675 negatif
859882809271386112 negatif
859882811876159489 positif
859882812584886273 negatif
859882813201559552 mixte
859882813411217409 negatif
859882826296156161 positif
859882827579633670 positif
859882832474374144 negatif
859882848957997057 negatif
859882851625558017 negatif
859882852443357184 negatif
859882852816740359 negatif
859882855421313027 negatif
859882858839715840 negatif
859882862639808517 negatif
859882867085778947 negatif
859882867974864901 autre
859882879278608384 negatif
859882881736482816 negatif
859882886966759425 positif
859882912380006401 negatif
859882917807443968 negatif
859882928855285760 negatif
859882947339579392 negatif
859882965194682370 negatif
859882968919277569 autre
859882981212778496 negatif
859882983834218498 negatif
859882989915959296 negatif
859882994986823681 negatif
859883003836866562 autre
859883017266974720 negatif
859883020744101893 positif
859883027698249729 positif
859883028914606080 negatif
859883035206070273 negatif
859883038246928386 negatif
859883041388363776 negatif
859883058593509380 negatif
859883059272876032 negatif
859883070694060032 positif
859883080844288000 negatif
859883110439297028 negatif
859883126138568707 negatif
859883130152517632 negatif
859883138373365760 negatif
859883138629197825 negatif
859883148905250816 positif
859883149391790083 autre
859883154412326912 autre
859883158703136768 negatif
859883160758366209 negatif
859883161316196352 positif
859883166454218752 negatif
859883166982696967 negatif
859883170514206722 negatif
859883185303416837 autre
859883189313179656 negatif
859883190626004993 negatif
859883195810054144 mixte
859883197617905664 negatif
859883203997421569 negatif
859883209097662465 positif
859883210020450304 negatif
859883212235001858 negatif
859883218899808258 autre
859883224109117440 mixte
859883228714422272 negatif
859883233139453953 autre
859883235584749570 autre
859883237694468096 negatif
859883244124286977 negatif
859883267184631809 mixte
859883268845580288 negatif
859883270619762690 negatif
859883271760556032 negatif
859883274319138816 autre
859883283404005381 autre
859883288936280066 negatif
859883303519780864 positif
859883304849469441 negatif
859883308884393986 negatif
859883309232508929 negatif
859883311187062784 negatif
859883312390819842 negatif
859883318854209538 mixte
859883321035239428 autre
859883324835287040 autre
859883332871573505 negatif
859883333127372802 negatif
859883339876110336 negatif
859883339888697345 positif
859883357815136256 negatif
859883358666489860 autre
859883358830178304 negatif
859883360172290048 positif
859883361518727169 negatif
859883377507393541 negatif
859883380330176516 negatif
859883393055694850 negatif
859883394431430656 mixte
859883396402745345 negatif
859883405625970692 negatif
859883432633147400 negatif
859883434638028801 positif
859883455232053252 negatif
859883455789895683 positif
859883458340024320 negatif
859883461984833537 negatif
859883464795017220 positif
859883467273797633 autre
859883468578271232 positif
859883483602321409 negatif
859883491839889409 negatif
859883495606407169 negatif
859883497674158086 positif
859883500635381761 positif
859883511163084800 autre
859883511179816964 autre
859883512685527041 positif
859883518951862278 negatif
859883525792825344 mixte
859883535406157824 negatif
859883540305129474 negatif
859883545527025664 negatif
859883550220328960 negatif
859883553500385281 positif
859883557858267136 positif
859883559858786304 negatif
859883568910266368 positif
859883575730163713 autre
859883577063993348 mixte
859883603123109891 positif
859883603865608200 autre
859883611272728582 positif
859883615785811970 positif
859883618835062790 positif
859883624438607872 mixte
859883628590923781 negatif
859883630503628803 autre
859883632818876421 negatif
859883635024986113 positif
859883638485286915 positif
859883648925016064 positif
859883658613850113 positif
859883661021282305 positif
859883663940616192 positif
859883666700476417 autre
859883667954556929 negatif
859883675764346886 negatif
859883681145643010 positif
859883687562932224 negatif
859883689479741440 negatif
859883694538063877 negatif
859883695636959233 negatif
859883710245679104 positif
859883716155494403 positif
859883718709833731 negatif
859883719481597952 positif
859883724397268996 positif
859883725429116928 negatif
859883727886987264 negatif
859883732622299138 autre
859883740075634688 negatif
859883740155269124 negatif
859883767107903488 autre
859883767829340161 mixte
859883772778606592 positif
859883778206027778 negatif
859883783205658624 negatif
859883785353138183 negatif
859883791342587904 autre
859883791514570760 positif
859883794832162816 negatif
859883795268460545 negatif
859883797013254147 negatif
859883799634726913 positif
859883804059717635 positif
859883806983147520 negatif
859883812523782146 negatif
859883816206422016 negatif
859883821411557383 negatif
859883824754417665 negatif
859883827514286082 negatif
859883844719304707 negatif
859883851975413760 positif
859883862037590017 negatif
859883863102959616 positif
859883867087527937 autre
859883892341448704 autre
859883900004204544 negatif
859883921659629568 positif
859883930060718083 negatif
859883931008716802 mixte
859883952768733184 negatif
859883961916547072 negatif
859883966656122881 positif
859883969831202816 positif
859883972960112640 mixte
859883978182066176 negatif
859883979528339456 negatif
859883982779035652 negatif
859883993143152640 negatif
859884000957091841 negatif
859884002701971457 positif
859884008766930944 negatif
859884008947286017 autre
859884016677384195 negatif
859884022251606022 negatif
859884024969531393 negatif
859884027653885953 positif
859884037564923904 positif
859884039079178240 negatif
859884045160910850 positif
859884049061601285 negatif
859884053859880962 positif
859884068682559493 positif
859884079424122881 positif
859884082729234432 negatif
859884086088912898 positif
859884088731348992 positif
859884103126196224 negatif
859884105126879232 positif
859884112148082690 positif
859884117659463680 negatif
859884122738749446 negatif
859884122906480641 positif
859884130645004288 positif
859884138421252102 autre
859884138630795264 positif
859884146646241282 positif
859884154867118088 negatif
859884163809325056 mixte
859884167420620801 negatif
859884182906032130 negatif
859884190619357186 positif
859884201511972868 negatif
859884205408493569 negatif
859884206314401795 negatif
859884226371608579 positif
859884234185560065 positif
859884234470772737 negatif
859884256419565568 negatif
859884261326901248 positif
859884264342638592 negatif
859884271753986048 negatif
859884273444245504 negatif
859884278301241344 positif
859884299113418753 positif
859884324354699265 negatif
859884325411721216 autre
859884332885913601 negatif
859884337671622657 negatif
859884343929565188 negatif
859884346798374912 negatif
859884360555745285 negatif
859884381195956224 negatif
859884386317107201 autre
859884395796332544 negatif
859884397490823172 negatif
859884401601241090 positif
859884431221325831 negatif
859884437504503808 positif
859884458345996288 negatif
859884466415820800 negatif
859884474175303680 negatif
859884478591897600 negatif
859884481452404738 negatif
859884486821130241 positif
859884494697975814 negatif
859884501681537025 negatif
859884501723471872 negatif
859884504105836544 negatif
859884506626613252 negatif
859884512817405952 negatif
859884555024687105 negatif
859884558568869888 negatif
859884568312258560 autre
859884571260850176 negatif
859884572363939844 negatif
859884580291186697 positif
859884592026849280 autre
859884611085754369 negatif
859884625920962561 negatif
859884626743099398 positif
859884628760571904 autre
859884629343555584 mixte
859884639053283328 mixte
859884651149750275 negatif
859884656249929729 positif
859884658993115138 mixte
859884659722899458 negatif
859884664932237313 negatif
859884672557494278 positif
859884688462278660 negatif
859884692023259139 negatif
859884695533834241 positif
859884706531246080 negatif
859884713342795779 positif
859884715746226181 negatif
859884724709470218 negatif
859884735321047040 positif
859884749812367360 negatif
859884783358357507 negatif
859884790023168004 positif
859884800760578048 negatif
859884803683909634 mixte
859884809757372422 negatif
859884821128118276 negatif
859884822390599680 negatif
859884827222388736 positif
859884835485233153 negatif
859884837209088000 autre
859884856855187456 negatif
859884858100912128 negatif
859884861208842241 mixte
859884861980499968 autre
859884872076337152 negatif
859884873267466242 negatif
859884873624039424 positif
859884900828291073 autre
859884902111744000 negatif
859884922932273154 negatif
859884924047896577 negatif
859884924865830912 negatif
859884926912647168 negatif
859884933283708932 positif
859884939029991426 positif
859884956155346949 negatif
859884957925244933 autre
859884959984742400 autre
859884977651167234 negatif
859885002393354242 negatif
859885018998599682 positif
859885029949943808 negatif
859885032873365505 positif
859885034991386624 negatif
859885039030501378 negatif
859885043023572992 negatif
859885048765480960 positif
859885048950116353 negatif
859885090784063490 negatif
859885102955974657 negatif
859885111310942209 negatif
859885122199461888 negatif
859885124774711296 autre
859885131036753920 positif
859885131154239490 negatif
859885142520758272 positif
859885167162347520 negatif
859885170241019904 negatif
859885175077052418 mixte
859885181938937857 negatif
859885188670730241 negatif
859885194479886337 mixte
859885214272815105 negatif
859885216894251008 positif
859885222674018304 negatif
859885285110403073 positif
859885294434308096 negatif
859885309089153024 positif
859885364055601152 negatif
859885366752555008 negatif
859885377229910016 negatif
859885386511900672 positif
859885443059503106 mixte
859885446163288066 negatif
859885480254599168 negatif
859885486466375680 negatif
859885491403010049 negatif
859885498994745344 negatif
859885504136982532 negatif
859885519081177089 mixte
859885531446087688 positif
859885550236520453 positif
859885553482948610 negatif
859885554078560258 mixte
859885568787832833 positif
859885598433304577 negatif
859885598903062530 negatif
859885601553862658 negatif
859885627441074176 negatif
859885641156485121 negatif
859885656541188104 negatif
859885663772188673 negatif
859885681514074112 autre
859885735100506118 positif
859885778972921857 negatif
859885793455767553 negatif
859885816960733184 mixte
859885820878229504 negatif
859885833700225027 negatif
859885885373984770 negatif
859885902138658817 positif
859885915229089792 negatif
859885920736206853 autre
859885938377465861 negatif
859885941925826563 negatif
859885966722568194 negatif
859885976184909825 negatif
859885982358917122 positif
859885998691536899 negatif
859886003590483969 negatif
859886012520071170 negatif
859886013463900161 positif
859886021881851905 negatif
859886031730073601 negatif
859886047517454338 autre
859886047886540800 negatif
859886069516468225 negatif
859886072599384066 autre
859886097253494787 positif
859886104618684420 negatif
859886107714084864 negatif
859886135165804545 mixte
859886137627881473 negatif
859886153054474242 negatif
859886153398460417 autre
859886159979270144 negatif
859886160184823811 negatif
859886167541657601 mixte
859886181491908610 positif
859886195320475650 positif
859886258235084802 negatif
859886265537351681 negatif
859886274525704192 negatif
859886356255977472 negatif
859886360261513216 autre
859886362916290560 positif
859886383032397825 negatif
859886397578149890 autre
859886399461482496 negatif
859886401004994560 negatif
859886414317719555 negatif
859886426271383553 negatif
859886429224259585 negatif
859886437927464960 mixte
859886460400537606 negatif
859886461738508289 negatif
859886472203251712 negatif
859886473839075332 negatif
859886501596942336 positif
859886507007647744 negatif
859886512393121793 negatif
859886523558363137 mixte
859886535415672833 positif
859886547935559680 negatif
859886558446587906 negatif
859886559524532225 negatif
859886569188196353 negatif
859886571499245568 negatif
859886583591391234 negatif
859886585168482305 autre
859886590587547649 negatif
859886609122152449 positif
859886610644684804 negatif
859886645566484482 negatif
859886662494674944 autre
859886663585210374 negatif
859886673336905728 negatif
859886687450796035 positif
859886688914612226 negatif
859886689547939844 positif
859886713589706753 negatif
859886718991958017 autre
859886719369441281 positif
859886746351415297 mixte
859886749639737348 negatif
859886752865161218 autre
859886760159006721 negatif
859886768354717696 negatif
859886772247023616 negatif
859886784171433991 negatif
859886792442597379 negatif
859886793679884293 negatif
859886833471299591 mixte
859886843537608705 negatif
859886856456069120 negatif
859886859543076864 negatif
859886860859998209 negatif
859886879696707584 negatif
859886902194962436 negatif
859886908096335872 negatif
859886908163469312 mixte
859886924353458179 positif
859886929294307328 negatif
859886929462034432 positif
859886976765440001 negatif
859886986475208705 negatif
859886993660141569 mixte
859887024983220224 negatif
859887037297643525 negatif
859887038019010562 negatif
859887059410055175 positif
859887075142893568 negatif
859887077227466752 negatif
859887084122853378 negatif
859887095992786944 negatif
859887096538025988 positif
859887097569783811 autre
859887111654318080 mixte
859887150589980672 negatif
859887152745902080 negatif
859887191652171777 negatif
859887205728358402 positif
859887208035233792 negatif
859887210224635906 negatif
859887227782017026 negatif
859887231896616961 autre
859887234740256768 negatif
859887273273380869 negatif
859887275194363910 negatif
859887303514357761 negatif
859887309289869313 mixte
859887332295684096 negatif
859887382044311556 negatif
859887385999548417 negatif
859887406325129221 positif
859887410171215879 positif
859887410645282819 positif
859887422464815104 negatif
859887436628930560 positif
859887438457655301 autre
859887441385336832 positif
859887444698832896 negatif
859887446754037760 negatif
859887461648019461 negatif
859887468082077697 negatif
859887468170158085 autre
859887468384006147 negatif
859887488919273477 negatif
859887543600459776 negatif
859887547669000193 negatif
859887569357733889 negatif
859887576790040576 positif
859887579386261506 negatif
859887581412151300 autre
859887588227919872 negatif
859887610159869952 negatif
859887615553806337 autre
859887618628177920 negatif
859887631542439938 autre
859887657874317313 autre
859887757904281605 negatif
859887793648087040 autre
859887795199987712 negatif
859887819287912448 negatif
859887827512942592 negatif
859887843510013953 autre
859887927626792964 autre
859887948875128833 positif
859887969804718085 negatif
859887970006048768 positif
859887977836752897 positif
859888004206399490 negatif
859888025760915457 mixte
859888034657042435 negatif
859888041418268674 positif
859888043632865280 autre
859888044031315968 negatif
859888058220642305 negatif
859888061773164545 positif
859888061819363329 negatif
859888092056104962 negatif
859888148490457089 negatif
859888244833611781 mixte
859888294640922624 positif
859888312420642818 positif
859888315956330496 negatif
859888333257928707 negatif
859888366137028609 negatif
859888386076815361 autre
859888392691224577 positif
859888433526956034 negatif
859888465982476288 mixte
859888469719568385 negatif
859888531791126530 negatif
859888582353461248 negatif
859888604415500288 negatif
859888605921243137 negatif
859888610488856576 positif
859888656340930560 positif
859888669238452225 negatif
859888675915784197 negatif
859888699185790976 autre
859888723634343936 negatif
859888731318300673 negatif
859888732278853633 autre
859888742101909509 negatif
859888757272653826 negatif
859888772388757504 negatif
859888830480044032 autre
859888841452335108 positif
859888846712057857 negatif
859888860137967616 negatif
859888921102168065 negatif
859888924390543360 negatif
859888937854218244 negatif
859888947735941120 negatif
859888957521375233 negatif
859888963947044864 autre
859888972474003457 negatif
859888991604166656 autre
859888993466552320 negatif
859889025326485505 positif
859889044980977664 negatif
859889053323362305 negatif
859889113239101441 negatif
859889121287954438 autre
859889147632390149 negatif
859889176162045952 positif
859889180930867200 negatif
859889208315584514 mixte
859889318206287872 autre
859889327429570566 negatif
859889398132899841 mixte
859889422678065152 negatif
859889432736002049 autre
859889452419883009 positif
859889485227675648 positif
859889501463818246 positif
859889531037900800 negatif
859889541892767745 positif
859889552479182850 negatif
859889554379210753 positif
859889573631053825 positif
859889576458014720 negatif
859889589397454848 autre
859889596431249410 negatif
859889628341579776 negatif
859889717164244992 autre
859889746117627905 positif
859889748680335365 mixte
859889752874659841 negatif
859889757169614848 negatif
859889814178541568 positif
859889873213427712 positif
859889874677227522 negatif
859889880456978432 negatif
859889886819700736 mixte
859889898416943105 positif
859889899369095170 negatif
859889900820328452 negatif
859889909968011266 negatif
859889919371751428 negatif
859889928242696193 positif
859889965819363329 autre
859890055703343104 negatif
859890067028025345 autre
859890077866090497 positif
859890123693010944 autre
859890128931651589 positif
859890167502557189 negatif
859890239795580931 positif
859890255046082568 negatif
859890256157573124 negatif
859890309546881024 negatif
859890355650658308 negatif
859890406661775361 autre
859890438110679040 positif
859890465901903872 autre
859890482104721408 positif
859890530829950980 positif
859890553483296773 negatif
859890570210267136 positif
859890595082457097 autre
859890605467586562 negatif
859890608269217792 positif
859890631891714055 positif
859890634735276033 positif
859890659003686914 autre
859890721549103104 negatif
859890722148929537 negatif
859890801085743105 autre
859890814692052992 negatif
859890836510826496 negatif
859890856601538565 negatif
859890858199588868 autre
859890869079609344 autre
859890869113155585 negatif
859890914541654016 negatif
859890948758802433 positif
859890968740364290 negatif
859890989573574657 negatif
859890990689267713 negatif
859891000973676545 negatif
859891015972528130 positif
859891075724562432 positif
859891094892544000 negatif
859891121178030080 negatif
859891166543831040 mixte
859891167307104257 negatif
859891176958251017 positif
859891204078657537 mixte
859891207350001664 positif
859891226316869638 negatif
859891227868753921 negatif
859891282252091393 autre
859891309263425536 negatif
859891315886235648 negatif
859891328972460032 positif
859891349872459777 negatif
859891384995778562 negatif
859891408995528705 negatif
859891430059278341 positif
859891501299617793 negatif
859891533369233410 negatif
859891557448679424 negatif
859891558853816320 autre
859891560938442757 negatif
859891594442493952 negatif
859891597210791936 autre
859891630765113345 negatif
859891650499420160 autre
859891656706990082 positif
859891677049257984 negatif
859891684708151296 negatif
859891702903054336 positif
859891720015814656 negatif
859891763888222209 positif
859891788554940416 negatif
859891813250977792 negatif
859891870733914112 mixte
859891935351275521 positif
859891964149456896 autre
859892028955648000 negatif
859892031208005632 negatif
859892043178496000 positif
859892078037401601 positif
859892100321751040 autre
859892101345148928 positif
859892106634121217 autre
859892126787805184 negatif
859892136036233217 negatif
859892141807607809 negatif
859892159486492672 autre
859892264629305344 negatif
859892267351511042 negatif
859892278629937153 mixte
859892334879789056 positif
859892354370633729 negatif
859892430732230656 negatif
859892435371122689 negatif
859892453045874688 autre
859892474214567937 negatif
859892497933373440 negatif
859892658122215424 negatif
859892698047811585 positif
859892751047020544 positif
859892816163504128 positif
859892863613775872 autre
859892878159609856 negatif
859892915858006017 negatif
859893036242915328 positif
859893060137873409 mixte
859893106782633985 negatif
859893115263504392 autre
859893135266197504 negatif
859893154719424512 positif
859893159098286082 positif
859893175170813952 negatif
859893186306736129 negatif
859893188731056130 positif
859893188944945152 negatif
859893211518685184 negatif
859893221358534657 negatif
859893284038221824 positif
859893300580544512 negatif
859893315952680962 negatif
859893357082013696 positif
859893361590894594 negatif
859893403731075072 negatif
859893502561460224 negatif
859893512023793665 positif
859893556491812865 negatif
859893565278879744 positif
859893591174508545 negatif
859893639069278209 negatif
859893685269483521 negatif
859893721000792065 negatif
859893723949346818 negatif
859893736867803137 positif
859893757096988672 autre
859893772729143296 negatif
859893811325136897 negatif
859893818489012224 autre
859893835522093056 negatif
859893836776185856 negatif
859893843801632769 positif
859893859727409152 negatif
859893912755949569 negatif
859893962877829120 negatif
859893991705382912 positif
859894107954663424 negatif
859894135934922753 positif
859894138866724865 positif
859894252108734464 negatif
859894259318759425 negatif
859894300150247424 negatif
859894312968097794 negatif
859894379082895361 autre
859894420912693248 negatif
859894448238596097 autre
859894457931632640 positif
859894526697246721 negatif
859894608779780097 negatif
859894650231980032 mixte
859894660407336960 negatif
859894726664826880 negatif
859894808587804673 negatif
859894841366413313 positif
859894849864171520 negatif
859894900753661952 mixte
859894906474704898 autre
859894915236581376 positif
859894950602964994 autre
859894972174274560 positif
859894984740397059 autre
859894986971774976 negatif
859895055125032961 negatif
859895058962817024 negatif
859895113119653888 mixte
859895131868192768 negatif
859895146128842753 autre
859895181763633152 negatif
859895196766674944 autre
859895282707963904 positif
859895296221958144 negatif
859895376182206464 autre
859895427159777280 positif
859895429948952577 autre
859895525176483840 negatif
859895553165074432 negatif
859895580780310529 mixte
859895645351575552 autre
859895656172978176 negatif
859895657578061825 negatif
859895668491657216 negatif
859895752394502144 negatif
859895756546854913 autre
859895794132029442 negatif
859895802969419778 negatif
859895819285254144 negatif
859895881465835520 negatif
859895884301127680 negatif
859895891314040832 negatif
859896074126974976 negatif
859896110885818369 positif
859896183959031808 negatif
859896201340223488 autre
859896216120905728 autre
859896259330658306 negatif
859896268201611265 positif
859896285301813248 negatif
859896381313622016 negatif
859896386497544192 negatif
859896397042155520 negatif
859896408366874625 autre
859896472204173312 autre
859896531142537227 negatif
859896536620302337 negatif
859896545830981632 autre
859896557998530561 negatif
859896568622850048 negatif
859896608091234305 positif
859896608732917761 negatif
859896622918098944 negatif
859896693608919041 negatif
859896708741910529 mixte
859896791499722754 negatif
859896874437935104 negatif
859896897229787138 negatif
859896960584646659 negatif
859897056844029954 negatif
859897067585536000 negatif
859897085075886080 negatif
859897098069823488 negatif
859897196426276864 positif
859897233130627072 mixte
859897354509537280 mixte
859897410314801155 negatif
859897423275196416 negatif
859897461732773888 negatif
859897505500332033 negatif
859897526538960897 negatif
859897586156752896 negatif
859897624085901312 negatif
859897630847111169 autre
859897800938704897 autre
859897842986602496 negatif
859897855401750528 mixte
859897877530910721 mixte
859897891556642818 negatif
859897937845002240 negatif
859897993641807873 negatif
859897994082213889 positif
859898029335347200 positif
859898077330759681 autre
859898145614041088 positif
859898203545755649 autre
859898228594147328 autre
859898321195937792 negatif
859898394806018048 negatif
859898473805643776 mixte
859898477563842560 negatif
859898607000059904 negatif
859898754941558784 mixte
859898794472861696 positif
859898828639621121 negatif
859899004750110720 autre
859899060739813376 negatif
859899074430062592 negatif
859899116918374400 mixte
859899197985890304 autre
859899419667431424 negatif
859899608536936449 negatif
859899690095128576 negatif
859899713017057281 negatif
859899730289184768 positif
859899740217114624 negatif
859899912858763265 autre
859899934891442176 negatif
859899970484404224 negatif
859900048573960193 negatif
859900062108983297 negatif
859900070807949312 positif
859900151888007168 negatif
859900199921229824 autre
859900331702005760 negatif
859900356498792448 mixte
859900380230164480 negatif
859900515395801090 autre
859900557494026240 negatif
859900642734878721 negatif
859900711059980288 positif
859900756564094977 negatif
859900768945668097 negatif
859900807931723778 negatif
859900876487630850 positif
859901005705752576 negatif
859901050089873408 negatif
859901203010007040 positif
859901212568801280 negatif
859901241131970560 negatif
859901263227518978 negatif
859901333322838017 autre
859901345423380480 negatif
859901518815928320 negatif
859901528332791808 negatif
859901562545741824 negatif
859901575925559297 negatif
859901580832903168 autre
859901581348790272 negatif
859901609974915073 negatif
859901614777303041 autre
859901645060272128 autre
859901646511407104 negatif
859901722495524864 positif
859901762379145216 negatif
859901762769125377 autre
859901808264794112 positif
859901981070151680 negatif
859901997457313793 negatif
859902170900160512 autre
859902225535074304 negatif
859902294640525312 negatif
859902415943983104 negatif
859902422046715904 negatif
859902469983395841 positif
859902602309402624 positif
859902694705831936 autre
859902700166807552 negatif
859902838201364480 negatif
859902885676675076 negatif
859902931365134337 negatif
859902949811736577 autre
859902995382898688 autre
859902998931230720 negatif
859903021375000576 negatif
859903027175731200 negatif
859903039574073344 negatif
859903100064235521 autre
859903159422119937 autre
859903217798443008 negatif
859903342822162432 negatif
859903359653998592 autre
859903429048766464 negatif
859903452104798208 negatif
859903468114501633 positif
859903487366352897 positif
859903505871622144 negatif
859903548125057024 negatif
859903614395002880 positif
859903672918192128 positif
859903771874340865 negatif
859903839373283328 autre
859903919920631809 autre
859904016913924096 positif
859904245239361536 negatif
859904455952695296 autre
859904518573748224 mixte
859904549980696577 negatif
859904639961059328 negatif
859904655777828865 negatif
859904828029509633 autre
859904833029115905 positif
859904834719371264 autre
859904854281596928 mixte
859904906236395520 positif
859904974146482177 positif
859905074423791618 negatif
859905112533344256 autre
859905142950383616 autre
859905260437032962 autre
859905268884307968 positif
859905272042721280 negatif
